#!/system/bin/sh
#
#
#===============================
#===============================
# NOS-INJECTION BY EXIT_ONLY ===
#===============================
#===============================
#
#

# Attention Developers & users: This is my new nos injection logging engine. 
# Please include this into you ROM. 
# This new logging engine will help me trouble shoot issues that my scripts may cause.
# It will also help the ROM developer with trouble shooting as well.
# I will be adding more logs as I rebuild the engine